fpga/ov5640_mnist_serial/.Xil/Vivado-13560-DESKTOP-C3MDEKS/hw_ila_data_1/zip_work/waveform.vcd
$date
        2023-Mar-10 23:51:45
$end
$version
        Vivado v2017.4 (64-bit)
$end
$timescale
        1ps
$end
$scope module dut $end
$var reg 8 " mnist_process/mnist_data [7:0] $end
$var reg 1 * mnist_process/mnist_data_valid $end
$var reg 1 + _TRIGGER $end
$var reg 1 , _WINDOW $end
$var reg 1 - _GAP $end
$upscope $end
$enddefinitions $end
#0
$dumpvars
b1101111 "
0*
0+
1,
0-
$end
#512
1*
1+
#513
b1110000 "
#517
b1101111 "
#518
b1110001 "
#521
b1110000 "
#522
b1110010 "
#524
b1110001 "
#525
b1110010 "
#526
b1110001 "
#528
b1110000 "
#530
b1110010 "
#531
b1110100 "
#532
b1110010 "
#533
b1110101 "
#535
b1110110 "
#536
b1111011 "
#537
b1111100 "
#538
b1111110 "
#539
b1111111 "
#540
b1101110 "
#541
b1101111 "
#546
b1110000 "
#548
b1101111 "
#549
b1110000 "
#550
b1101110 "
#551
b1110000 "
#552
b1101111 "
#553
b1110000 "
#555
b1110001 "
#558
b1110011 "
#560
b1110101 "
#561
b1110100 "
#563
b1110110 "
#564
b1111001 "
#565
b1111011 "
#566
b1111100 "
#567
b1111101 "
#568
b1101101 "
#569
b1101110 "
#570
b1101111 "
#571
b1110000 "
#572
b1101110 "
#573
b1101111 "
#574
b1110000 "
#576
b1101111 "
#578
b1101110 "
#579
b1101111 "
#580
b1110000 "
#581
b1101111 "
#582
b1100100 "
#583
b1011011 "
#584
b1100011 "
#585
b1110001 "
#586
b1110010 "
#587
b1110011 "
#588
b1110100 "
#589
b1110101 "
#590
b1110100 "
#591
b1110101 "
#592
b1111001 "
#593
b1111010 "
#594
b1111101 "
#596
b1101110 "
#598
b1101101 "
#599
b1101110 "
#602
b1101111 "
#603
b1101101 "
#604
b1101111 "
#605
b1101110 "
#606
b1101111 "
#607
b1101110 "
#609
b1101100 "
#610
b111111 "
#611
b100010 "
#612
b1000001 "
#613
b1101110 "
#614
b1110010 "
#615
b1110001 "
#616
b1110011 "
#619
b1110110 "
#620
b1110111 "
#621
b1111001 "
#622
b1111010 "
#623
b1111101 "
#624
b1101101 "
#626
b1101011 "
#628
b1101100 "
#629
b1101110 "
#630
b1101101 "
#632
b1101110 "
#633
b1101101 "
#635
b1101110 "
#636
b1101101 "
#637
b1100101 "
#638
b100101 "
#639
b10010 "
#640
b101100 "
#641
b1100110 "
#642
b1110001 "
#643
b1110011 "
#644
b1110010 "
#645
b1110100 "
#646
b1110010 "
#647
b1110101 "
#648
b1110110 "
#649
b1111001 "
#651
b1111011 "
#652
b1101010 "
#653
b1100111 "
#654
b1100110 "
#656
b1100111 "
#657
b1101000 "
#658
b1101101 "
#659
b1101110 "
#660
b1101101 "
#663
b1101110 "
#664
b1101100 "
#665
b1010011 "
#666
b11000 "
#667
b10010 "
#668
b11001 "
#669
b1000111 "
#670
b1101101 "
#671
b1110000 "
#672
b1110010 "
#673
b1110011 "
#675
b1110100 "
#676
b1110101 "
#677
b1111000 "
#678
b1111010 "
#679
b1111011 "
#680
b1100111 "
#681
b1100101 "
#683
b1100011 "
#684
b1100010 "
#685
b1100100 "
#686
b1100110 "
#687
b1101001 "
#688
b1101101 "
#690
b1101110 "
#691
b1101101 "
#692
b1101011 "
#693
b111101 "
#694
b10001 "
#696
b10010 "
#697
b110011 "
#698
b1101010 "
#699
b1110001 "
#700
b1110010 "
#702
b1110001 "
#703
b1110011 "
#704
b1110101 "
#705
b1110111 "
#706
b1111000 "
#707
b1111010 "
#708
b1100111 "
#709
b1100110 "
#710
b1100100 "
#712
b1100011 "
#713
b1100100 "
#714
b1100101 "
#715
b1100111 "
#716
b1101010 "
#717
b1101100 "
#720
b1100110 "
#721
b101000 "
#722
b1111 "
#723
b1110 "
#724
b10010 "
#725
b111110 "
#726
b1101100 "
#727
b1101111 "
#728
b1110000 "
#729
b1110010 "
#730
b1110011 "
#731
b1110010 "
#732
b1110100 "
#733
b1110101 "
#734
b1111010 "
#736
b1101001 "
#737
b1101000 "
#738
b1101010 "
#740
b1101001 "
#741
b1100101 "
#742
b1100100 "
#743
b1100110 "
#744
b1100111 "
#745
b1101010 "
#746
b1101101 "
#747
b1101011 "
#748
b1010110 "
#749
b11010 "
#750
b10000 "
#752
b10111 "
#753
b1010100 "
#754
b1110000 "
#757
b1110011 "
#758
b1110010 "
#759
b1110011 "
#761
b1110111 "
#762
b1111000 "
#763
b1111001 "
#764
b1101001 "
#767
b1101010 "
#769
b1101000 "
#770
b1100100 "
#771
b1100101 "
#772
b1101001 "
#774
b1101010 "
#776
b1000100 "
#777
b10010 "
#778
b1111 "
#779
b10010 "
#780
b11101 "
#781
b1100000 "
#782
b1110000 "
#784
b1110001 "
#785
b1110000 "
#786
b1110001 "
#787
b1110010 "
#788
b1110101 "
#789
b1110110 "
#790
b1111000 "
#792
b1101000 "
#793
b1101001 "
#795
b1101010 "
#798
b1100111 "
#799
b1100110 "
#800
b1101010 "
#802
b1101001 "
#803
b1100101 "
#804
b101101 "
#805
b10000 "
#806
b1110 "
#807
b10001 "
#808
b101011 "
#809
b1100110 "
#810
b1101111 "
#811
b1110001 "
#812
b1101111 "
#813
b1110000 "
#814
b1110001 "
#816
b1110100 "
#817
b1110101 "
#818
b1110111 "
#819
b1111001 "
#820
b1100111 "
#821
b1101000 "
#824
b1101001 "
#825
b1101010 "
#826
b1101001 "
#827
b1101010 "
#828
b1101001 "
#829
b1101000 "
#830
b1101010 "
#831
b1011001 "
#832
b11101 "
#833
b1110 "
#835
b10010 "
#836
b1000000 "
#837
b1101101 "
#838
b1101111 "
#839
b1110000 "
#840
b1101111 "
#842
b1110001 "
#844
b1110010 "
#845
b1110101 "
#846
b1110111 "
#847
b1111000 "
#848
b1100111 "
#850
b1101001 "
#853
b1101000 "
#854
b1101010 "
#855
b1101001 "
#858
b1101010 "
#859
b1001100 "
#860
b10100 "
#861
b1111 "
#862
b1101 "
#863
b10111 "
#864
b1010100 "
#865
b1101111 "
#866
b1101110 "
#867
b1110000 "
#872
b1110100 "
#873
b1110101 "
#874
b1110110 "
#875
b1111000 "
#876
b1100110 "
#878
b1101001 "
#879
b1101000 "
#881
b1101010 "
#882
b1101001 "
#886
b1100111 "
#887
b111010 "
#888
b10001 "
#889
b1110 "
#891
b100010 "
#892
b1100011 "
#893
b1101110 "
#895
b1101111 "
#896
b1101110 "
#897
b1110000 "
#898
b1110001 "
#899
b1110000 "
#900
b1110010 "
#901
b1110100 "
#902
b1110110 "
#904
b1100101 "
#905
b1100110 "
#906
b1100111 "
#907
b1101000 "
#910
b1101001 "
#911
b1101000 "
#912
b1101001 "
#914
b1100010 "
#915
b100111 "
#916
b1111 "
#917
b1110 "
#918
b1111 "
#919
b110101 "
#920
b1101100 "
#921
b1101110 "
#922
b1101111 "
#923
b1101101 "
#924
b1101111 "
#928
b1110001 "
#929
b1110011 "
#930
b1110101 "
#931
b1110110 "
#932
b1100101 "
#933
b1100110 "
#934
b1101000 "
#936
b1100110 "
#937
b1100111 "
#938
b1101000 "
#942
b1010110 "
#943
b11001 "
#944
b1100 "
#945
b1111 "
#946
b10011 "
#947
b1001101 "
#948
b1101101 "
#950
b1101110 "
#951
b1101101 "
#952
b1101111 "
#953
b1110000 "
#954
b1110001 "
#955
b1110000 "
#956
b1110010 "
#957
b1110001 "
#958
b1110101 "
#959
b1110100 "
#960
b1100110 "
#961
b1100101 "
#962
b1100110 "
#964
b1100111 "
#965
b1100110 "
#966
b1100111 "
#967
b1101000 "
#968
b1100110 "
#970
b1000001 "
#971
b10001 "
#972
b1101 "
#973
b1111 "
#974
b11110 "
#975
b1011111 "
#976
b1101100 "
#977
b1101110 "
#978
b1101101 "
#980
b1101110 "
#981
b1101111 "
#983
b1110001 "
#986
b1110010 "
#987
b1110100 "
#988
b1100101 "
#992
b1100110 "
#995
b1100111 "
#996
b1101000 "
#997
b1100011 "
#998
b101010 "
#999
b1101 "
#1001
b1111 "
#1002
b110001 "
#1003
b1101000 "
#1004
b1101101 "
#1007
b1101100 "
#1008
b1101101 "
#1009
b1101110 "
#1010
b1101111 "
#1012
b1110000 "
#1013
b1110001 "
#1014
b1110000 "
#1015
b1110001 "
#1016
b1100101 "
#1017
b1100100 "
#1018
b1100101 "
#1019
b1100110 "
#1022
b1100101 "
#1023
b1100111 "
